{
	"extensionName": {
		"message": "礼服法珠领取器",
		"description": "Name of the extension."
	},

	"extensionDescription": {
		"message": "领取户口里所有礼服与法珠.",
		"description": "Description of the extension."
	},

	"popupBody": {
		"message": "领取：",
		"description": "Primary text of the popup, before the buttons."
	},

	"dumpDresses": {
		"message": "礼服",
		"description": "Text for the dresses button."
	},

	"dumpOrbs": {
		"message": "法珠",
		"description": "Text for the orbs button."
	},

	"dumpBoth": {
		"message": "礼服与法珠",
		"description": "Text for the dresses + orbs button."
	},

	"dumpSF": {
		"message": "SF 伤害表",
		"description": "Text for the SF damage button."
	},

	"popupSFRound": {
		"message": "第幾輪: ",
		"description": "Prefix for current SF round."
	},

	"popupSFBoss": {
		"message": "王: ",
		"description": "Prefix for current SF boss name."
	},

	"popupSFHP": {
		"message": "HP: ",
		"description": "Prefix for current SF boss HP."
	}
}